[
  {
    "id": 0,
    "distanciaPeligro": 5,
    "distanciaPrecaucion": 10,
    "agresor": {
      "dni": "1",
      "idDispositivo": "D1",
      "nombre": "Jose"
    },
    "agredido": {
      "dni": "2",
      "idDispositivo": "D2",
      "nombre": "Pedro"
    }
  }
]